﻿{
	"iisSettings": {
		"windowsAuthentication": false,
		"anonymousAuthentication": true,
		"iisExpress": {
			"applicationUrl": "http://localhost:55310",
			"sslPort": 44341
		}
	},
	"profiles": {
		"IIS Express": {
			"commandName": "IISExpress",
			"launchBrowser": true,
			"environmentVariables": {
				"ASPNETCORE_ENVIRONMENT": "Development"
			}
		},
		"bcp.web": {
			"commandName": "Project",
			"launchBrowser": true,
			"applicationUrl": "https://localhost:5031;http://localhost:5030",
			"environmentVariables": {
				"ASPNETCORE_ENVIRONMENT": "Development"
			}
		}
	}
}
